{
  "places": [
    { "geometry": [18.99645, -98.203156] },
    { "geometry": [18.995639, -98.202855] },
    { "geometry": [18.994867, -98.202543] },
    { "geometry": [18.993549, -98.202086] },
    { "geometry": [18.992082, -98.201601] },
    { "geometry": [18.990547, -98.200963] },
    { "geometry": [18.988094, -98.200227] },
    { "geometry": [18.985339, -98.199326] },
    { "geometry": [18.983686, -98.198688] },
    { "geometry": [18.98156, -98.198008] },
    { "geometry": [18.979632, -98.197314] },
    { "geometry": [18.978832, -98.196787] },
    { "geometry": [18.97706, -98.194623] },
    { "geometry": [18.975945, -98.193249] },
    { "geometry": [18.975132, -98.192639] },
    { "geometry": [18.973925, -98.192347] },
    { "geometry": [18.973203, -98.192278] },
    { "geometry": [18.972403, -98.192694] },
    { "geometry": [18.972009, -98.193971] },
    { "geometry": [18.971813, -98.19583] },
    { "geometry": [18.971482, -98.197835] },
    { "geometry": [18.971237, -98.19972] },
    { "geometry": [18.971472, -98.201346] },
    { "geometry": [18.971845, -98.203333] },
    { "geometry": [18.972454, -98.20602] },
    { "geometry": [18.972935, -98.208143] },
    { "geometry": [18.973543, -98.209328] },
    { "geometry": [18.974483, -98.210389] },
    { "geometry": [18.975935, -98.211857] },
    { "geometry": [18.977227, -98.213291] },
    { "geometry": [18.977974, -98.214341] },
    { "geometry": [18.978422, -98.215391] },
    { "geometry": [18.978508, -98.217039] },
    { "geometry": [18.978572, -98.219162] },
    { "geometry": [18.979458, -98.221206] },
    { "geometry": [18.980793, -98.223712] },
    { "geometry": [18.984412, -98.230351] },
    { "geometry": [18.984988, -98.232135] },
    { "geometry": [18.985479, -98.233297] },
    { "geometry": [18.986536, -98.234946] },
    { "geometry": [18.987903, -98.237317] },
    { "geometry": [18.989099, -98.23953] },
    { "geometry": [18.990316, -98.241743] },
    { "geometry": [18.991821, -98.244418] },
    { "geometry": [18.992579, -98.245852] },
    { "geometry": [18.992792, -98.247083] },
    { "geometry": [18.992686, -98.248223] },
    { "geometry": [18.992814, -98.249522] },
    { "geometry": [18.994212, -98.252672] },
    { "geometry": [18.995034, -98.254252] },
    { "geometry": [18.996593, -98.256059] },
    { "geometry": [18.998312, -98.258351] },
    { "geometry": [18.999187, -98.25948] },
    { "geometry": [19.000233, -98.260349] },
    { "geometry": [19.000895, -98.260462] },
    { "geometry": [19.001674, -98.260428] },
    { "geometry": [19.003254, -98.260293] },
    { "geometry": [19.004578, -98.26018] },
    { "geometry": [19.005816, -98.260022] },
    { "geometry": [19.007119, -98.259954] },
    { "geometry": [19.007951, -98.260044] },
    { "geometry": [19.009179, -98.260462] },
    { "geometry": [19.009851, -98.260575] },
    { "geometry": [19.010502, -98.26062] },
    { "geometry": [19.011228, -98.260315] },
    { "geometry": [19.011922, -98.259717] },
    { "geometry": [19.013342, -98.257549] },
    { "geometry": [19.014954, -98.254986] },
    { "geometry": [19.016267, -98.252976] },
    { "geometry": [19.017996, -98.250064] },
    { "geometry": [19.018892, -98.248551] },
    { "geometry": [19.01964, -98.247309] },
    { "geometry": [19.020088, -98.246123] },
    { "geometry": [19.020397, -98.245299] },
    { "geometry": [19.020867, -98.244689] },
    { "geometry": [19.021518, -98.24417] },
    { "geometry": [19.021956, -98.243504] }
  ],
  "places2": [
    { "geometry": [18.974483, -98.210389] },
    { "geometry": [18.975935, -98.211857] },
    { "geometry": [18.977227, -98.213291] },
    { "geometry": [18.977974, -98.214341] },
    { "geometry": [18.978422, -98.215391] },
    { "geometry": [18.978508, -98.217039] },
    { "geometry": [18.978572, -98.219162] },
    { "geometry": [18.979458, -98.221206] },
    { "geometry": [18.980793, -98.223712] },
    { "geometry": [18.984412, -98.230351] },
    { "geometry": [18.984988, -98.232135] },
    { "geometry": [18.985479, -98.233297] },
    { "geometry": [18.986536, -98.234946] },
    { "geometry": [18.987903, -98.237317] },
    { "geometry": [18.989099, -98.23953] },
    { "geometry": [18.990316, -98.241743] },
    { "geometry": [18.991821, -98.244418] },
    { "geometry": [18.992579, -98.245852] },
    { "geometry": [18.992792, -98.247083] },
    { "geometry": [18.992686, -98.248223] },
    { "geometry": [18.992814, -98.249522] },
    { "geometry": [18.994212, -98.252672] },
    { "geometry": [18.995034, -98.254252] },
    { "geometry": [18.996593, -98.256059] },
    { "geometry": [18.998312, -98.258351] },
    { "geometry": [18.999187, -98.25948] },
    { "geometry": [19.000233, -98.260349] },
    { "geometry": [19.000895, -98.260462] },
    { "geometry": [19.001674, -98.260428] },
    { "geometry": [19.003254, -98.260293] },
    { "geometry": [19.004578, -98.26018] },
    { "geometry": [19.005816, -98.260022] },
    { "geometry": [19.007119, -98.259954] },
    { "geometry": [19.007951, -98.260044] },
    { "geometry": [19.009179, -98.260462] },
    { "geometry": [19.009851, -98.260575] },
    { "geometry": [19.010502, -98.26062] },
    { "geometry": [19.011228, -98.260315] },
    { "geometry": [19.011922, -98.259717] },
    { "geometry": [19.013342, -98.257549] },
    { "geometry": [19.014954, -98.254986] },
    { "geometry": [19.016267, -98.252976] },
    { "geometry": [19.017996, -98.250064] },
    { "geometry": [19.018892, -98.248551] },
    { "geometry": [19.01964, -98.247309] },
    { "geometry": [19.020088, -98.246123] },
    { "geometry": [19.020397, -98.245299] },
    { "geometry": [19.020867, -98.244689] },
    { "geometry": [19.021518, -98.24417] },
    { "geometry": [19.021956, -98.243504] },
    { "geometry": [18.99645, -98.203156] },
    { "geometry": [18.995639, -98.202855] },
    { "geometry": [18.994867, -98.202543] },
    { "geometry": [18.993549, -98.202086] },
    { "geometry": [18.992082, -98.201601] },
    { "geometry": [18.990547, -98.200963] },
    { "geometry": [18.988094, -98.200227] },
    { "geometry": [18.985339, -98.199326] },
    { "geometry": [18.983686, -98.198688] },
    { "geometry": [18.98156, -98.198008] },
    { "geometry": [18.979632, -98.197314] },
    { "geometry": [18.978832, -98.196787] },
    { "geometry": [18.97706, -98.194623] },
    { "geometry": [18.975945, -98.193249] },
    { "geometry": [18.975132, -98.192639] },
    { "geometry": [18.973925, -98.192347] },
    { "geometry": [18.973203, -98.192278] },
    { "geometry": [18.972403, -98.192694] },
    { "geometry": [18.972009, -98.193971] },
    { "geometry": [18.971813, -98.19583] },
    { "geometry": [18.971482, -98.197835] },
    { "geometry": [18.971237, -98.19972] },
    { "geometry": [18.971472, -98.201346] },
    { "geometry": [18.971845, -98.203333] },
    { "geometry": [18.972454, -98.20602] },
    { "geometry": [18.972935, -98.208143] },
    { "geometry": [18.973543, -98.209328] }
  ]
}
